%YAML 1.1
%TAG !u! tag:unity3d.com,2011:
--- !u!114 &11400000
MonoBehaviour:
  m_ObjectHideFlags: 0
  m_CorrespondingSourceObject: {fileID: 0}
  m_PrefabInstance: {fileID: 0}
  m_PrefabAsset: {fileID: 0}
  m_GameObject: {fileID: 0}
  m_Enabled: 1
  m_EditorHideFlags: 0
  m_Script: {fileID: 11500000, guid: abda475e53f5f7b479c67e2a750d538a, type: 3}
  m_Name: EnemyMelee1
  m_EditorClassIdentifier: 
  _EnemyType: 0
  _Speed: 2
  _Color: {r: 1, g: 0.99959075, b: 0, a: 1}
  _FollowRange: 4
  _AttackDMG: 1
  _Health: 5
