%YAML 1.1
%TAG !u! tag:unity3d.com,2011:
--- !u!74 &7400000
AnimationClip:
  m_ObjectHideFlags: 0
  m_CorrespondingSourceObject: {fileID: 0}
  m_PrefabInstance: {fileID: 0}
  m_PrefabAsset: {fileID: 0}
  m_Name: EnemyBaseWalk
  serializedVersion: 7
  m_Legacy: 0
  m_Compressed: 0
  m_UseHighQualityCurve: 1
  m_RotationCurves: []
  m_CompressedRotationCurves: []
  m_EulerCurves: []
  m_PositionCurves: []
  m_ScaleCurves: []
  m_FloatCurves: []
  m_PPtrCurves:
  - serializedVersion: 2
    curve:
    - time: 0
      value: {fileID: 167266846, guid: 665593635eacbc947943db38dcedf1b2, type: 3}
    - time: 0.083333336
      value: {fileID: 266114289, guid: 665593635eacbc947943db38dcedf1b2, type: 3}
    - time: 0.18333334
      value: {fileID: 630212887, guid: 665593635eacbc947943db38dcedf1b2, type: 3}
    - time: 0.26666668
      value: {fileID: 429717261, guid: 665593635eacbc947943db38dcedf1b2, type: 3}
    - time: 0.36666667
      value: {fileID: -2124170225, guid: 665593635eacbc947943db38dcedf1b2, type: 3}
    - time: 0.45
      value: {fileID: 873191779, guid: 665593635eacbc947943db38dcedf1b2, type: 3}
    - time: 0.55
      value: {fileID: 847580140, guid: 665593635eacbc947943db38dcedf1b2, type: 3}
    - time: 0.6333333
      value: {fileID: 1526216697, guid: 665593635eacbc947943db38dcedf1b2, type: 3}
    - time: 0.73333335
      value: {fileID: 252124898, guid: 665593635eacbc947943db38dcedf1b2, type: 3}
    - time: 0.81666666
      value: {fileID: 1099028286, guid: 665593635eacbc947943db38dcedf1b2, type: 3}
    - time: 0.9166667
      value: {fileID: 1700385378, guid: 665593635eacbc947943db38dcedf1b2, type: 3}
    - time: 1
      value: {fileID: -640293385, guid: 665593635eacbc947943db38dcedf1b2, type: 3}
    attribute: m_Sprite
    path: 
    classID: 212
    script: {fileID: 0}
    flags: 2
  m_SampleRate: 60
  m_WrapMode: 0
  m_Bounds:
    m_Center: {x: 0, y: 0, z: 0}
    m_Extent: {x: 0, y: 0, z: 0}
  m_ClipBindingConstant:
    genericBindings:
    - serializedVersion: 2
      path: 0
      attribute: 0
      script: {fileID: 0}
      typeID: 212
      customType: 23
      isPPtrCurve: 1
      isIntCurve: 0
      isSerializeReferenceCurve: 0
    pptrCurveMapping:
    - {fileID: 167266846, guid: 665593635eacbc947943db38dcedf1b2, type: 3}
    - {fileID: 266114289, guid: 665593635eacbc947943db38dcedf1b2, type: 3}
    - {fileID: 630212887, guid: 665593635eacbc947943db38dcedf1b2, type: 3}
    - {fileID: 429717261, guid: 665593635eacbc947943db38dcedf1b2, type: 3}
    - {fileID: -2124170225, guid: 665593635eacbc947943db38dcedf1b2, type: 3}
    - {fileID: 873191779, guid: 665593635eacbc947943db38dcedf1b2, type: 3}
    - {fileID: 847580140, guid: 665593635eacbc947943db38dcedf1b2, type: 3}
    - {fileID: 1526216697, guid: 665593635eacbc947943db38dcedf1b2, type: 3}
    - {fileID: 252124898, guid: 665593635eacbc947943db38dcedf1b2, type: 3}
    - {fileID: 1099028286, guid: 665593635eacbc947943db38dcedf1b2, type: 3}
    - {fileID: 1700385378, guid: 665593635eacbc947943db38dcedf1b2, type: 3}
    - {fileID: -640293385, guid: 665593635eacbc947943db38dcedf1b2, type: 3}
  m_AnimationClipSettings:
    serializedVersion: 2
    m_AdditiveReferencePoseClip: {fileID: 0}
    m_AdditiveReferencePoseTime: 0
    m_StartTime: 0
    m_StopTime: 1.0166667
    m_OrientationOffsetY: 0
    m_Level: 0
    m_CycleOffset: 0
    m_HasAdditiveReferencePose: 0
    m_LoopTime: 1
    m_LoopBlend: 0
    m_LoopBlendOrientation: 0
    m_LoopBlendPositionY: 0
    m_LoopBlendPositionXZ: 0
    m_KeepOriginalOrientation: 0
    m_KeepOriginalPositionY: 1
    m_KeepOriginalPositionXZ: 0
    m_HeightFromFeet: 0
    m_Mirror: 0
  m_EditorCurves: []
  m_EulerEditorCurves: []
  m_HasGenericRootTransform: 0
  m_HasMotionFloatCurves: 0
  m_Events: []
